<?xml version="1.0" standalone="no"?>
<!DOCTYPE svg PUBLIC "-//W3C//DTD SVG 20010904//EN"
 "http://www.w3.org/TR/2001/REC-SVG-20010904/DTD/svg10.dtd">
<svg version="1.0" xmlns="http://www.w3.org/2000/svg"
 width="1280.000000pt" height="2133.000000pt" viewBox="0 0 1280.000000 2133.000000"
 preserveAspectRatio="xMidYMid meet">
<metadata>
Created by potrace 1.16, written by Peter Selinger 2001-2019
</metadata>
<g transform="translate(0.000000,2133.000000) scale(0.100000,-0.100000)"
fill="#000000" stroke="none">
<path d="M6397 14939 c-3518 -3515 -6397 -6395 -6397 -6400 0 -5 219 -9 538
-9 l537 0 5863 5863 5862 5862 -2 538 -3 538 -6398 -6392z"/>
<path d="M7460 13865 l-5335 -5335 540 0 540 0 4798 4798 4797 4797 -2 538 -3
537 -5335 -5335z"/>
<path d="M8525 12799 l-4270 -4270 4270 -4263 4270 -4264 3 537 2 536 -3727
3727 -3728 3728 3728 3728 3727 3727 -2 543 -3 542 -4270 -4271z"/>
<path d="M9598 11743 c-1759 -1759 -3198 -3203 -3198 -3208 0 -6 1440 -1450
3200 -3210 l3200 -3200 0 540 0 540 -2662 2662 -2663 2663 2663 2663 2662
2662 -2 543 -3 542 -3197 -3197z"/>
<path d="M10660 10665 l-2135 -2135 2138 -2138 2137 -2137 0 545 0 545 -1595
1595 -1595 1595 1595 1595 1595 1595 -2 538 -3 537 -2135 -2135z"/>
</g>
</svg>
